{
    "1": {
        "name": "Anton Krylosov Andreevich",
        "Predmet1_score": "5",
        "Predmet2_score": "5",
        "Predmet3_score": "5",
        "Predmet4_score": "5",
        "Predmet5_score": "5",
        "Predmet6_score": "5",
        "Predmet7_score": "5",
        "Predmet8_score": "5",
        "Predmet9_score": "5",
        "Predmet10_score": "4",
        "mean": "0"
    },
    "2": {
        "name": "Anton Krylosov Andreevich",
        "Predmet1_score": "5",
        "Predmet2_score": "5",
        "Predmet3_score": "5",
        "Predmet4_score": "5",
        "Predmet5_score": "5",
        "Predmet6_score": "5",
        "Predmet7_score": "5",
        "Predmet8_score": "5",
        "Predmet9_score": "5",
        "Predmet10_score": "4",
        "mean": "0"
    },
    "3": {
        "name": "Anton Krylosov Andreevich",
        "Predmet1_score": "5",
        "Predmet2_score": "5",
        "Predmet3_score": "5",
        "Predmet4_score": "5",
        "Predmet5_score": "5",
        "Predmet6_score": "5",
        "Predmet7_score": "5",
        "Predmet8_score": "5",
        "Predmet9_score": "5",
        "Predmet10_score": "4",
        "mean": "0"
    },
}